Tutorial/FastAdder.vcd
$date
  Fri Jun 19 04:13:34 2020
$end
$version
  GHDL v0
$end
$timescale
  1 fs
$end
$scope module standard $end
$upscope $end
$scope module std_logic_1164 $end
$upscope $end
$scope module numeric_std $end
$upscope $end
$scope module fastadder_tb $end
$var reg 4 ! a[3:0] $end
$var reg 4 " b[3:0] $end
$var reg 4 # s[3:0] $end
$var reg 1 $ ci $end
$var reg 1 % co $end
$scope module fastadder $end
$var reg 4 & a[3:0] $end
$var reg 4 ' b[3:0] $end
$var reg 1 ( ci $end
$var reg 4 ) s[3:0] $end
$var reg 1 * co $end
$var reg 3 + c[2:0] $end
$scope module fastadderunit0 $end
$var reg 1 , a $end
$var reg 1 - b $end
$var reg 1 . ci $end
$var reg 1 / s $end
$var reg 1 0 co $end
$upscope $end
$scope module fastadderunit1 $end
$var reg 1 1 a $end
$var reg 1 2 b $end
$var reg 1 3 ci $end
$var reg 1 4 s $end
$var reg 1 5 co $end
$upscope $end
$scope module fastadderunit2 $end
$var reg 1 6 a $end
$var reg 1 7 b $end
$var reg 1 8 ci $end
$var reg 1 9 s $end
$var reg 1 : co $end
$upscope $end
$scope module fastadderunit3 $end
$var reg 1 ; a $end
$var reg 1 < b $end
$var reg 1 = ci $end
$var reg 1 > s $end
$var reg 1 ? co $end
$upscope $end
$upscope $end
$upscope $end
$enddefinitions $end
#0
b0000 !
b0000 "
b0000 #
0$
0%
b0000 &
b0000 '
0(
b0000 )
0*
b000 +
0,
0-
0.
0/
00
01
02
03
04
05
06
07
08
09
0:
0;
0<
0=
0>
0?
#10000000
b0001 "
b0001 #
b0001 '
b0001 )
1-
1/
#20000000
b0010 "
b0010 #
b0010 '
b0010 )
0-
0/
12
14
#30000000
b0011 "
b0011 #
b0011 '
b0011 )
1-
1/
#40000000
b0100 "
b0100 #
b0100 '
b0100 )
0-
0/
02
04
17
19
#50000000
b0101 "
b0101 #
b0101 '
b0101 )
1-
1/
#60000000
b0110 "
b0110 #
b0110 '
b0110 )
0-
0/
12
14
#70000000
b0111 "
b0111 #
b0111 '
b0111 )
1-
1/
#80000000
b1000 "
b1000 #
b1000 '
b1000 )
0-
0/
02
04
07
09
1<
1>
#90000000
b1001 "
b1001 #
b1001 '
b1001 )
1-
1/
#100000000
b1010 "
b1010 #
b1010 '
b1010 )
0-
0/
12
14
#110000000
b1011 "
b1011 #
b1011 '
b1011 )
1-
1/
#120000000
b1100 "
b1100 #
b1100 '
b1100 )
0-
0/
02
04
17
19
#130000000
b1101 "
b1101 #
b1101 '
b1101 )
1-
1/
#140000000
b1110 "
b1110 #
b1110 '
b1110 )
0-
0/
12
14
#150000000
b1111 "
b1111 #
b1111 '
b1111 )
1-
1/
#160000000
b0001 !
b0000 "
b0001 #
b0001 &
b0000 '
b0001 )
1,
0-
02
04
07
09
0<
0>
#170000000
b0001 "
b0010 #
b0001 '
b0010 )
b001 +
1-
0/
10
13
14
#180000000
b0010 "
b0011 #
b0010 '
b0011 )
b000 +
0-
1/
00
12
03
14
05
08
09
#190000000
b0011 "
b0100 #
b0011 '
b0100 )
b011 +
1-
0/
10
13
04
15
18
19
#200000000
b0100 "
b0101 #
b0100 '
b0101 )
b000 +
0-
1/
00
02
03
04
05
17
08
19
0:
0=
0>
#210000000
b0101 "
b0110 #
b0101 '
b0110 )
b001 +
1-
0/
10
13
14
#220000000
b0110 "
b0111 #
b0110 '
b0111 )
b000 +
0-
1/
00
12
03
14
05
08
19
0:
0=
0>
#230000000
b0111 "
b1000 #
b0111 '
b1000 )
b111 +
1-
0/
10
13
04
15
18
09
1:
1=
1>
#240000000
b1000 "
b1001 #
0%
b1000 '
b1001 )
0*
b000 +
0-
1/
00
02
03
04
05
07
08
09
0:
1<
0=
1>
0?
#250000000
b1001 "
b1010 #
b1001 '
b1010 )
b001 +
1-
0/
10
13
14
#260000000
b1010 "
b1011 #
b1010 '
b1011 )
b000 +
0-
1/
00
12
03
14
05
08
09
#270000000
b1011 "
b1100 #
b1011 '
b1100 )
b011 +
1-
0/
10
13
04
15
18
19
#280000000
b1100 "
b1101 #
0%
b1100 '
b1101 )
0*
b000 +
0-
1/
00
02
03
04
05
17
08
19
0:
0=
1>
0?
#290000000
b1101 "
b1110 #
b1101 '
b1110 )
b001 +
1-
0/
10
13
14
#300000000
b1110 "
b1111 #
0%
b1110 '
b1111 )
0*
b000 +
0-
1/
00
12
03
14
05
08
19
0:
0=
1>
0?
#310000000
b1111 "
b0000 #
1%
b1111 '
b0000 )
1*
b111 +
1-
0/
10
13
04
15
18
09
1:
1=
0>
1?
#320000000
b0010 !
b0000 "
b0010 #
0%
b0010 &
b0000 '
b0010 )
0*
b000 +
0,
0-
00
11
02
03
14
05
07
08
09
0:
0<
0=
0>
0?
#330000000
b0001 "
b0011 #
b0001 '
b0011 )
1-
1/
#340000000
b0010 "
b0100 #
b0010 '
b0100 )
b010 +
0-
0/
12
04
15
18
19
#350000000
b0011 "
b0101 #
b0011 '
b0101 )
1-
1/
#360000000
b0100 "
b0110 #
b0100 '
b0110 )
b000 +
0-
0/
02
14
05
17
08
19
0:
0=
0>
#370000000
b0101 "
b0111 #
b0101 '
b0111 )
1-
1/
#380000000
b0110 "
b1000 #
b0110 '
b1000 )
b110 +
0-
0/
12
04
15
18
09
1:
1=
1>
#390000000
b0111 "
b1001 #
b0111 '
b1001 )
1-
1/
#400000000
b1000 "
b1010 #
0%
b1000 '
b1010 )
0*
b000 +
0-
0/
02
14
05
07
08
09
0:
1<
0=
1>
0?
#410000000
b1001 "
b1011 #
b1001 '
b1011 )
1-
1/
#420000000
b1010 "
b1100 #
b1010 '
b1100 )
b010 +
0-
0/
12
04
15
18
19
#430000000
b1011 "
b1101 #
b1011 '
b1101 )
1-
1/
#440000000
b1100 "
b1110 #
0%
b1100 '
b1110 )
0*
b000 +
0-
0/
02
14
05
17
08
19
0:
0=
1>
0?
#450000000
b1101 "
b1111 #
b1101 '
b1111 )
1-
1/
#460000000
b1110 "
b0000 #
1%
b1110 '
b0000 )
1*
b110 +
0-
0/
12
04
15
18
09
1:
1=
0>
1?
#470000000
b1111 "
b0001 #
b1111 '
b0001 )
1-
1/
#480000000
b0011 !
b0000 "
b0011 #
0%
b0011 &
b0000 '
b0011 )
0*
b000 +
1,
0-
02
14
05
07
08
09
0:
0<
0=
0>
0?
#490000000
b0001 "
b0100 #
b0001 '
b0100 )
b011 +
1-
0/
10
13
04
15
18
19
#500000000
b0010 "
b0101 #
b0010 '
b0101 )
b010 +
0-
1/
00
12
03
04
#510000000
b0011 "
b0110 #
b0011 '
b0110 )
b011 +
1-
0/
10
13
14
#520000000
b0100 "
b0111 #
b0100 '
b0111 )
b000 +
0-
1/
00
02
03
14
05
17
08
19
0:
0=
0>
#530000000
b0101 "
b1000 #
b0101 '
b1000 )
b111 +
1-
0/
10
13
04
15
18
09
1:
1=
1>
#540000000
b0110 "
b1001 #
b0110 '
b1001 )
b110 +
0-
1/
00
12
03
04
#550000000
b0111 "
b1010 #
b0111 '
b1010 )
b111 +
1-
0/
10
13
14
#560000000
b1000 "
b1011 #
0%
b1000 '
b1011 )
0*
b000 +
0-
1/
00
02
03
14
05
07
08
09
0:
1<
0=
1>
0?
#570000000
b1001 "
b1100 #
b1001 '
b1100 )
b011 +
1-
0/
10
13
04
15
18
19
#580000000
b1010 "
b1101 #
b1010 '
b1101 )
b010 +
0-
1/
00
12
03
04
#590000000
b1011 "
b1110 #
b1011 '
b1110 )
b011 +
1-
0/
10
13
14
#600000000
b1100 "
b1111 #
0%
b1100 '
b1111 )
0*
b000 +
0-
1/
00
02
03
14
05
17
08
19
0:
0=
1>
0?
#610000000
b1101 "
b0000 #
1%
b1101 '
b0000 )
1*
b111 +
1-
0/
10
13
04
15
18
09
1:
1=
0>
1?
#620000000
b1110 "
b0001 #
b1110 '
b0001 )
b110 +
0-
1/
00
12
03
04
#630000000
b1111 "
b0010 #
b1111 '
b0010 )
b111 +
1-
0/
10
13
14
#640000000
b0100 !
b0000 "
b0100 #
0%
b0100 &
b0000 '
b0100 )
0*
b000 +
0,
0-
00
01
02
03
04
05
16
07
08
19
0:
0<
0=
0>
0?
#650000000
b0001 "
b0101 #
b0001 '
b0101 )
1-
1/
#660000000
b0010 "
b0110 #
b0010 '
b0110 )
0-
0/
12
14
#670000000
b0011 "
b0111 #
b0011 '
b0111 )
1-
1/
#680000000
b0100 "
b1000 #
b0100 '
b1000 )
b100 +
0-
0/
02
04
17
09
1:
1=
1>
#690000000
b0101 "
b1001 #
b0101 '
b1001 )
1-
1/
#700000000
b0110 "
b1010 #
b0110 '
b1010 )
0-
0/
12
14
#710000000
b0111 "
b1011 #
b0111 '
b1011 )
1-
1/
#720000000
b1000 "
b1100 #
0%
b1000 '
b1100 )
0*
b000 +
0-
0/
02
04
07
19
0:
1<
0=
1>
0?
#730000000
b1001 "
b1101 #
b1001 '
b1101 )
1-
1/
#740000000
b1010 "
b1110 #
b1010 '
b1110 )
0-
0/
12
14
#750000000
b1011 "
b1111 #
b1011 '
b1111 )
1-
1/
#760000000
b1100 "
b0000 #
1%
b1100 '
b0000 )
1*
b100 +
0-
0/
02
04
17
09
1:
1=
0>
1?
#770000000
b1101 "
b0001 #
b1101 '
b0001 )
1-
1/
#780000000
b1110 "
b0010 #
b1110 '
b0010 )
0-
0/
12
14
#790000000
b1111 "
b0011 #
b1111 '
b0011 )
1-
1/
#800000000
b0101 !
b0000 "
b0101 #
0%
b0101 &
b0000 '
b0101 )
0*
b000 +
1,
0-
02
04
07
19
0:
0<
0=
0>
0?
#810000000
b0001 "
b0110 #
b0001 '
b0110 )
b001 +
1-
0/
10
13
14
#820000000
b0010 "
b0111 #
b0010 '
b0111 )
b000 +
0-
1/
00
12
03
14
05
08
19
0:
0=
0>
#830000000
b0011 "
b1000 #
b0011 '
b1000 )
b111 +
1-
0/
10
13
04
15
18
09
1:
1=
1>
#840000000
b0100 "
b1001 #
b0100 '
b1001 )
b100 +
0-
1/
00
02
03
04
05
17
08
09
#850000000
b0101 "
b1010 #
b0101 '
b1010 )
b101 +
1-
0/
10
13
14
#860000000
b0110 "
b1011 #
b0110 '
b1011 )
b100 +
0-
1/
00
12
03
14
05
08
09
#870000000
b0111 "
b1100 #
b0111 '
b1100 )
b111 +
1-
0/
10
13
04
15
18
19
#880000000
b1000 "
b1101 #
0%
b1000 '
b1101 )
0*
b000 +
0-
1/
00
02
03
04
05
07
08
19
0:
1<
0=
1>
0?
#890000000
b1001 "
b1110 #
b1001 '
b1110 )
b001 +
1-
0/
10
13
14
#900000000
b1010 "
b1111 #
0%
b1010 '
b1111 )
0*
b000 +
0-
1/
00
12
03
14
05
08
19
0:
0=
1>
0?
#910000000
b1011 "
b0000 #
1%
b1011 '
b0000 )
1*
b111 +
1-
0/
10
13
04
15
18
09
1:
1=
0>
1?
#920000000
b1100 "
b0001 #
b1100 '
b0001 )
b100 +
0-
1/
00
02
03
04
05
17
08
09
#930000000
b1101 "
b0010 #
b1101 '
b0010 )
b101 +
1-
0/
10
13
14
#940000000
b1110 "
b0011 #
b1110 '
b0011 )
b100 +
0-
1/
00
12
03
14
05
08
09
#950000000
b1111 "
b0100 #
b1111 '
b0100 )
b111 +
1-
0/
10
13
04
15
18
19
#960000000
b0110 !
b0000 "
b0110 #
0%
b0110 &
b0000 '
b0110 )
0*
b000 +
0,
0-
00
11
02
03
14
05
07
08
19
0:
0<
0=
0>
0?
#970000000
b0001 "
b0111 #
b0001 '
b0111 )
1-
1/
#980000000
b0010 "
b1000 #
b0010 '
b1000 )
b110 +
0-
0/
12
04
15
18
09
1:
1=
1>
#990000000
b0011 "
b1001 #
b0011 '
b1001 )
1-
1/
#1000000000
b0100 "
b1010 #
b0100 '
b1010 )
b100 +
0-
0/
02
14
05
17
08
09
#1010000000
b0101 "
b1011 #
b0101 '
b1011 )
1-
1/
#1020000000
b0110 "
b1100 #
b0110 '
b1100 )
b110 +
0-
0/
12
04
15
18
19
#1030000000
b0111 "
b1101 #
b0111 '
b1101 )
1-
1/
#1040000000
b1000 "
b1110 #
0%
b1000 '
b1110 )
0*
b000 +
0-
0/
02
14
05
07
08
19
0:
1<
0=
1>
0?
#1050000000
b1001 "
b1111 #
b1001 '
b1111 )
1-
1/
#1060000000
b1010 "
b0000 #
1%
b1010 '
b0000 )
1*
b110 +
0-
0/
12
04
15
18
09
1:
1=
0>
1?
#1070000000
b1011 "
b0001 #
b1011 '
b0001 )
1-
1/
#1080000000
b1100 "
b0010 #
b1100 '
b0010 )
b100 +
0-
0/
02
14
05
17
08
09
#1090000000
b1101 "
b0011 #
b1101 '
b0011 )
1-
1/
#1100000000
b1110 "
b0100 #
b1110 '
b0100 )
b110 +
0-
0/
12
04
15
18
19
#1110000000
b1111 "
b0101 #
b1111 '
b0101 )
1-
1/
#1120000000
b0111 !
b0000 "
b0111 #
0%
b0111 &
b0000 '
b0111 )
0*
b000 +
1,
0-
02
14
05
07
08
19
0:
0<
0=
0>
0?
#1130000000
b0001 "
b1000 #
b0001 '
b1000 )
b111 +
1-
0/
10
13
04
15
18
09
1:
1=
1>
#1140000000
b0010 "
b1001 #
b0010 '
b1001 )
b110 +
0-
1/
00
12
03
04
#1150000000
b0011 "
b1010 #
b0011 '
b1010 )
b111 +
1-
0/
10
13
14
#1160000000
b0100 "
b1011 #
b0100 '
b1011 )
b100 +
0-
1/
00
02
03
14
05
17
08
09
#1170000000
b0101 "
b1100 #
b0101 '
b1100 )
b111 +
1-
0/
10
13
04
15
18
19
#1180000000
b0110 "
b1101 #
b0110 '
b1101 )
b110 +
0-
1/
00
12
03
04
#1190000000
b0111 "
b1110 #
b0111 '
b1110 )
b111 +
1-
0/
10
13
14
#1200000000
b1000 "
b1111 #
0%
b1000 '
b1111 )
0*
b000 +
0-
1/
00
02
03
14
05
07
08
19
0:
1<
0=
1>
0?
#1210000000
b1001 "
b0000 #
1%
b1001 '
b0000 )
1*
b111 +
1-
0/
10
13
04
15
18
09
1:
1=
0>
1?
#1220000000
b1010 "
b0001 #
b1010 '
b0001 )
b110 +
0-
1/
00
12
03
04
#1230000000
b1011 "
b0010 #
b1011 '
b0010 )
b111 +
1-
0/
10
13
14
#1240000000
b1100 "
b0011 #
b1100 '
b0011 )
b100 +
0-
1/
00
02
03
14
05
17
08
09
#1250000000
b1101 "
b0100 #
b1101 '
b0100 )
b111 +
1-
0/
10
13
04
15
18
19
#1260000000
b1110 "
b0101 #
b1110 '
b0101 )
b110 +
0-
1/
00
12
03
04
#1270000000
b1111 "
b0110 #
b1111 '
b0110 )
b111 +
1-
0/
10
13
14
#1280000000
b1000 !
b0000 "
b1000 #
0%
b1000 &
b0000 '
b1000 )
0*
b000 +
0,
0-
00
01
02
03
04
05
06
07
08
09
0:
1;
0<
0=
1>
0?
#1290000000
b0001 "
b1001 #
b0001 '
b1001 )
1-
1/
#1300000000
b0010 "
b1010 #
b0010 '
b1010 )
0-
0/
12
14
#1310000000
b0011 "
b1011 #
b0011 '
b1011 )
1-
1/
#1320000000
b0100 "
b1100 #
b0100 '
b1100 )
0-
0/
02
04
17
19
#1330000000
b0101 "
b1101 #
b0101 '
b1101 )
1-
1/
#1340000000
b0110 "
b1110 #
b0110 '
b1110 )
0-
0/
12
14
#1350000000
b0111 "
b1111 #
b0111 '
b1111 )
1-
1/
#1360000000
b1000 "
b0000 #
1%
b1000 '
b0000 )
1*
0-
0/
02
04
07
09
1<
0>
1?
#1370000000
b1001 "
b0001 #
b1001 '
b0001 )
1-
1/
#1380000000
b1010 "
b0010 #
b1010 '
b0010 )
0-
0/
12
14
#1390000000
b1011 "
b0011 #
b1011 '
b0011 )
1-
1/
#1400000000
b1100 "
b0100 #
b1100 '
b0100 )
0-
0/
02
04
17
19
#1410000000
b1101 "
b0101 #
b1101 '
b0101 )
1-
1/
#1420000000
b1110 "
b0110 #
b1110 '
b0110 )
0-
0/
12
14
#1430000000
b1111 "
b0111 #
b1111 '
b0111 )
1-
1/
#1440000000
b1001 !
b0000 "
b1001 #
0%
b1001 &
b0000 '
b1001 )
0*
1,
0-
02
04
07
09
0<
1>
0?
#1450000000
b0001 "
b1010 #
b0001 '
b1010 )
b001 +
1-
0/
10
13
14
#1460000000
b0010 "
b1011 #
b0010 '
b1011 )
b000 +
0-
1/
00
12
03
14
05
08
09
#1470000000
b0011 "
b1100 #
b0011 '
b1100 )
b011 +
1-
0/
10
13
04
15
18
19
#1480000000
b0100 "
b1101 #
0%
b0100 '
b1101 )
0*
b000 +
0-
1/
00
02
03
04
05
17
08
19
0:
0=
1>
0?
#1490000000
b0101 "
b1110 #
b0101 '
b1110 )
b001 +
1-
0/
10
13
14
#1500000000
b0110 "
b1111 #
0%
b0110 '
b1111 )
0*
b000 +
0-
1/
00
12
03
14
05
08
19
0:
0=
1>
0?
#1510000000
b0111 "
b0000 #
1%
b0111 '
b0000 )
1*
b111 +
1-
0/
10
13
04
15
18
09
1:
1=
0>
1?
#1520000000
b1000 "
b0001 #
b1000 '
b0001 )
b000 +
0-
1/
00
02
03
04
05
07
08
09
0:
1<
0=
0>
#1530000000
b1001 "
b0010 #
b1001 '
b0010 )
b001 +
1-
0/
10
13
14
#1540000000
b1010 "
b0011 #
b1010 '
b0011 )
b000 +
0-
1/
00
12
03
14
05
08
09
#1550000000
b1011 "
b0100 #
b1011 '
b0100 )
b011 +
1-
0/
10
13
04
15
18
19
#1560000000
b1100 "
b0101 #
b1100 '
b0101 )
b000 +
0-
1/
00
02
03
04
05
17
08
19
0:
0=
0>
#1570000000
b1101 "
b0110 #
b1101 '
b0110 )
b001 +
1-
0/
10
13
14
#1580000000
b1110 "
b0111 #
b1110 '
b0111 )
b000 +
0-
1/
00
12
03
14
05
08
19
0:
0=
0>
#1590000000
b1111 "
b1000 #
b1111 '
b1000 )
b111 +
1-
0/
10
13
04
15
18
09
1:
1=
1>
#1600000000
b1010 !
b0000 "
b1010 #
0%
b1010 &
b0000 '
b1010 )
0*
b000 +
0,
0-
00
11
02
03
14
05
07
08
09
0:
0<
0=
1>
0?
#1610000000
b0001 "
b1011 #
b0001 '
b1011 )
1-
1/
#1620000000
b0010 "
b1100 #
b0010 '
b1100 )
b010 +
0-
0/
12
04
15
18
19
#1630000000
b0011 "
b1101 #
b0011 '
b1101 )
1-
1/
#1640000000
b0100 "
b1110 #
0%
b0100 '
b1110 )
0*
b000 +
0-
0/
02
14
05
17
08
19
0:
0=
1>
0?
#1650000000
b0101 "
b1111 #
b0101 '
b1111 )
1-
1/
#1660000000
b0110 "
b0000 #
1%
b0110 '
b0000 )
1*
b110 +
0-
0/
12
04
15
18
09
1:
1=
0>
1?
#1670000000
b0111 "
b0001 #
b0111 '
b0001 )
1-
1/
#1680000000
b1000 "
b0010 #
b1000 '
b0010 )
b000 +
0-
0/
02
14
05
07
08
09
0:
1<
0=
0>
#1690000000
b1001 "
b0011 #
b1001 '
b0011 )
1-
1/
#1700000000
b1010 "
b0100 #
b1010 '
b0100 )
b010 +
0-
0/
12
04
15
18
19
#1710000000
b1011 "
b0101 #
b1011 '
b0101 )
1-
1/
#1720000000
b1100 "
b0110 #
b1100 '
b0110 )
b000 +
0-
0/
02
14
05
17
08
19
0:
0=
0>
#1730000000
b1101 "
b0111 #
b1101 '
b0111 )
1-
1/
#1740000000
b1110 "
b1000 #
b1110 '
b1000 )
b110 +
0-
0/
12
04
15
18
09
1:
1=
1>
#1750000000
b1111 "
b1001 #
b1111 '
b1001 )
1-
1/
#1760000000
b1011 !
b0000 "
b1011 #
0%
b1011 &
b0000 '
b1011 )
0*
b000 +
1,
0-
02
14
05
07
08
09
0:
0<
0=
1>
0?
#1770000000
b0001 "
b1100 #
b0001 '
b1100 )
b011 +
1-
0/
10
13
04
15
18
19
#1780000000
b0010 "
b1101 #
b0010 '
b1101 )
b010 +
0-
1/
00
12
03
04
#1790000000
b0011 "
b1110 #
b0011 '
b1110 )
b011 +
1-
0/
10
13
14
#1800000000
b0100 "
b1111 #
0%
b0100 '
b1111 )
0*
b000 +
0-
1/
00
02
03
14
05
17
08
19
0:
0=
1>
0?
#1810000000
b0101 "
b0000 #
1%
b0101 '
b0000 )
1*
b111 +
1-
0/
10
13
04
15
18
09
1:
1=
0>
1?
#1820000000
b0110 "
b0001 #
b0110 '
b0001 )
b110 +
0-
1/
00
12
03
04
#1830000000
b0111 "
b0010 #
b0111 '
b0010 )
b111 +
1-
0/
10
13
14
#1840000000
b1000 "
b0011 #
b1000 '
b0011 )
b000 +
0-
1/
00
02
03
14
05
07
08
09
0:
1<
0=
0>
#1850000000
b1001 "
b0100 #
b1001 '
b0100 )
b011 +
1-
0/
10
13
04
15
18
19
#1860000000
b1010 "
b0101 #
b1010 '
b0101 )
b010 +
0-
1/
00
12
03
04
#1870000000
b1011 "
b0110 #
b1011 '
b0110 )
b011 +
1-
0/
10
13
14
#1880000000
b1100 "
b0111 #
b1100 '
b0111 )
b000 +
0-
1/
00
02
03
14
05
17
08
19
0:
0=
0>
#1890000000
b1101 "
b1000 #
b1101 '
b1000 )
b111 +
1-
0/
10
13
04
15
18
09
1:
1=
1>
#1900000000
b1110 "
b1001 #
b1110 '
b1001 )
b110 +
0-
1/
00
12
03
04
#1910000000
b1111 "
b1010 #
b1111 '
b1010 )
b111 +
1-
0/
10
13
14
#1920000000
b1100 !
b0000 "
b1100 #
0%
b1100 &
b0000 '
b1100 )
0*
b000 +
0,
0-
00
01
02
03
04
05
16
07
08
19
0:
0<
0=
1>
0?
#1930000000
b0001 "
b1101 #
b0001 '
b1101 )
1-
1/
#1940000000
b0010 "
b1110 #
b0010 '
b1110 )
0-
0/
12
14
#1950000000
b0011 "
b1111 #
b0011 '
b1111 )
1-
1/
#1960000000
b0100 "
b0000 #
1%
b0100 '
b0000 )
1*
b100 +
0-
0/
02
04
17
09
1:
1=
0>
1?
#1970000000
b0101 "
b0001 #
b0101 '
b0001 )
1-
1/
#1980000000
b0110 "
b0010 #
b0110 '
b0010 )
0-
0/
12
14
#1990000000
b0111 "
b0011 #
b0111 '
b0011 )
1-
1/
#2000000000
b1000 "
b0100 #
b1000 '
b0100 )
b000 +
0-
0/
02
04
07
19
0:
1<
0=
0>
#2010000000
b1001 "
b0101 #
b1001 '
b0101 )
1-
1/
#2020000000
b1010 "
b0110 #
b1010 '
b0110 )
0-
0/
12
14
#2030000000
b1011 "
b0111 #
b1011 '
b0111 )
1-
1/
#2040000000
b1100 "
b1000 #
b1100 '
b1000 )
b100 +
0-
0/
02
04
17
09
1:
1=
1>
#2050000000
b1101 "
b1001 #
b1101 '
b1001 )
1-
1/
#2060000000
b1110 "
b1010 #
b1110 '
b1010 )
0-
0/
12
14
#2070000000
b1111 "
b1011 #
b1111 '
b1011 )
1-
1/
#2080000000
b1101 !
b0000 "
b1101 #
0%
b1101 &
b0000 '
b1101 )
0*
b000 +
1,
0-
02
04
07
19
0:
0<
0=
1>
0?
#2090000000
b0001 "
b1110 #
b0001 '
b1110 )
b001 +
1-
0/
10
13
14
#2100000000
b0010 "
b1111 #
0%
b0010 '
b1111 )
0*
b000 +
0-
1/
00
12
03
14
05
08
19
0:
0=
1>
0?
#2110000000
b0011 "
b0000 #
1%
b0011 '
b0000 )
1*
b111 +
1-
0/
10
13
04
15
18
09
1:
1=
0>
1?
#2120000000
b0100 "
b0001 #
b0100 '
b0001 )
b100 +
0-
1/
00
02
03
04
05
17
08
09
#2130000000
b0101 "
b0010 #
b0101 '
b0010 )
b101 +
1-
0/
10
13
14
#2140000000
b0110 "
b0011 #
b0110 '
b0011 )
b100 +
0-
1/
00
12
03
14
05
08
09
#2150000000
b0111 "
b0100 #
b0111 '
b0100 )
b111 +
1-
0/
10
13
04
15
18
19
#2160000000
b1000 "
b0101 #
b1000 '
b0101 )
b000 +
0-
1/
00
02
03
04
05
07
08
19
0:
1<
0=
0>
#2170000000
b1001 "
b0110 #
b1001 '
b0110 )
b001 +
1-
0/
10
13
14
#2180000000
b1010 "
b0111 #
b1010 '
b0111 )
b000 +
0-
1/
00
12
03
14
05
08
19
0:
0=
0>
#2190000000
b1011 "
b1000 #
b1011 '
b1000 )
b111 +
1-
0/
10
13
04
15
18
09
1:
1=
1>
#2200000000
b1100 "
b1001 #
b1100 '
b1001 )
b100 +
0-
1/
00
02
03
04
05
17
08
09
#2210000000
b1101 "
b1010 #
b1101 '
b1010 )
b101 +
1-
0/
10
13
14
#2220000000
b1110 "
b1011 #
b1110 '
b1011 )
b100 +
0-
1/
00
12
03
14
05
08
09
#2230000000
b1111 "
b1100 #
b1111 '
b1100 )
b111 +
1-
0/
10
13
04
15
18
19
#2240000000
b1110 !
b0000 "
b1110 #
0%
b1110 &
b0000 '
b1110 )
0*
b000 +
0,
0-
00
11
02
03
14
05
07
08
19
0:
0<
0=
1>
0?
#2250000000
b0001 "
b1111 #
b0001 '
b1111 )
1-
1/
#2260000000
b0010 "
b0000 #
1%
b0010 '
b0000 )
1*
b110 +
0-
0/
12
04
15
18
09
1:
1=
0>
1?
#2270000000
b0011 "
b0001 #
b0011 '
b0001 )
1-
1/
#2280000000
b0100 "
b0010 #
b0100 '
b0010 )
b100 +
0-
0/
02
14
05
17
08
09
#2290000000
b0101 "
b0011 #
b0101 '
b0011 )
1-
1/
#2300000000
b0110 "
b0100 #
b0110 '
b0100 )
b110 +
0-
0/
12
04
15
18
19
#2310000000
b0111 "
b0101 #
b0111 '
b0101 )
1-
1/
#2320000000
b1000 "
b0110 #
b1000 '
b0110 )
b000 +
0-
0/
02
14
05
07
08
19
0:
1<
0=
0>
#2330000000
b1001 "
b0111 #
b1001 '
b0111 )
1-
1/
#2340000000
b1010 "
b1000 #
b1010 '
b1000 )
b110 +
0-
0/
12
04
15
18
09
1:
1=
1>
#2350000000
b1011 "
b1001 #
b1011 '
b1001 )
1-
1/
#2360000000
b1100 "
b1010 #
b1100 '
b1010 )
b100 +
0-
0/
02
14
05
17
08
09
#2370000000
b1101 "
b1011 #
b1101 '
b1011 )
1-
1/
#2380000000
b1110 "
b1100 #
b1110 '
b1100 )
b110 +
0-
0/
12
04
15
18
19
#2390000000
b1111 "
b1101 #
b1111 '
b1101 )
1-
1/
#2400000000
b1111 !
b0000 "
b1111 #
0%
b1111 &
b0000 '
b1111 )
0*
b000 +
1,
0-
02
14
05
07
08
19
0:
0<
0=
1>
0?
#2410000000
b0001 "
b0000 #
1%
b0001 '
b0000 )
1*
b111 +
1-
0/
10
13
04
15
18
09
1:
1=
0>
1?
#2420000000
b0010 "
b0001 #
b0010 '
b0001 )
b110 +
0-
1/
00
12
03
04
#2430000000
b0011 "
b0010 #
b0011 '
b0010 )
b111 +
1-
0/
10
13
14
#2440000000
b0100 "
b0011 #
b0100 '
b0011 )
b100 +
0-
1/
00
02
03
14
05
17
08
09
#2450000000
b0101 "
b0100 #
b0101 '
b0100 )
b111 +
1-
0/
10
13
04
15
18
19
#2460000000
b0110 "
b0101 #
b0110 '
b0101 )
b110 +
0-
1/
00
12
03
04
#2470000000
b0111 "
b0110 #
b0111 '
b0110 )
b111 +
1-
0/
10
13
14
#2480000000
b1000 "
b0111 #
b1000 '
b0111 )
b000 +
0-
1/
00
02
03
14
05
07
08
19
0:
1<
0=
0>
#2490000000
b1001 "
b1000 #
b1001 '
b1000 )
b111 +
1-
0/
10
13
04
15
18
09
1:
1=
1>
#2500000000
b1010 "
b1001 #
b1010 '
b1001 )
b110 +
0-
1/
00
12
03
04
#2510000000
b1011 "
b1010 #
b1011 '
b1010 )
b111 +
1-
0/
10
13
14
#2520000000
b1100 "
b1011 #
b1100 '
b1011 )
b100 +
0-
1/
00
02
03
14
05
17
08
09
#2530000000
b1101 "
b1100 #
b1101 '
b1100 )
b111 +
1-
0/
10
13
04
15
18
19
#2540000000
b1110 "
b1101 #
b1110 '
b1101 )
b110 +
0-
1/
00
12
03
04
#2550000000
b1111 "
b1110 #
b1111 '
b1110 )
b111 +
1-
0/
10
13
14
#2560000000
b0000 !
b0000 "
b0001 #
1$
0%
b0000 &
b0000 '
1(
b0001 )
0*
b000 +
0,
0-
1.
1/
00
01
02
03
04
05
06
07
08
09
0:
0;
0<
0=
0>
0?
#2570000000
b0001 "
b0010 #
b0001 '
b0010 )
b001 +
1-
0/
10
13
14
#2580000000
b0010 "
b0011 #
b0010 '
b0011 )
b000 +
0-
1/
00
12
03
14
05
08
09
#2590000000
b0011 "
b0100 #
b0011 '
b0100 )
b011 +
1-
0/
10
13
04
15
18
19
#2600000000
b0100 "
b0101 #
b0100 '
b0101 )
b000 +
0-
1/
00
02
03
04
05
17
08
19
0:
0=
0>
#2610000000
b0101 "
b0110 #
b0101 '
b0110 )
b001 +
1-
0/
10
13
14
#2620000000
b0110 "
b0111 #
b0110 '
b0111 )
b000 +
0-
1/
00
12
03
14
05
08
19
0:
0=
0>
#2630000000
b0111 "
b1000 #
b0111 '
b1000 )
b111 +
1-
0/
10
13
04
15
18
09
1:
1=
1>
#2640000000
b1000 "
b1001 #
0%
b1000 '
b1001 )
0*
b000 +
0-
1/
00
02
03
04
05
07
08
09
0:
1<
0=
1>
0?
#2650000000
b1001 "
b1010 #
b1001 '
b1010 )
b001 +
1-
0/
10
13
14
#2660000000
b1010 "
b1011 #
b1010 '
b1011 )
b000 +
0-
1/
00
12
03
14
05
08
09
#2670000000
b1011 "
b1100 #
b1011 '
b1100 )
b011 +
1-
0/
10
13
04
15
18
19
#2680000000
b1100 "
b1101 #
0%
b1100 '
b1101 )
0*
b000 +
0-
1/
00
02
03
04
05
17
08
19
0:
0=
1>
0?
#2690000000
b1101 "
b1110 #
b1101 '
b1110 )
b001 +
1-
0/
10
13
14
