Tutorial/FastAdderUnit.vcd
$date
  Wed Jul 08 22:37:51 2020
$end
$version
  GHDL v0
$end
$timescale
  1 fs
$end
$scope module standard $end
$upscope $end
$scope module std_logic_1164 $end
$upscope $end
$scope module fastadderunit_tb $end
$var reg 1 ! a $end
$var reg 1 " b $end
$var reg 1 # ci $end
$var reg 1 $ s $end
$var reg 1 % co $end
$scope module fastadderunit $end
$var reg 1 & a $end
$var reg 1 ' b $end
$var reg 1 ( ci $end
$var reg 1 ) s $end
$var reg 1 * co $end
$upscope $end
$upscope $end
$enddefinitions $end
#0
0!
0"
0#
0$
0%
0&
0'
0(
0)
0*
#10000000
1"
1$
1'
1)
#20000000
1!
0"
1&
0'
#30000000
1"
0$
1%
1'
0)
1*
#40000000
0!
0"
1#
1$
0%
0&
0'
1(
1)
0*
#50000000
1"
0$
1%
1'
0)
1*
#60000000
1!
0"
1&
0'
#70000000
1"
1$
1'
1)
